ch/ethz/globis/isk/persistence/mongo/MongoArticleDao.class
ch/ethz/globis/isk/domain/mongo/MongoPublication.class
ch/ethz/globis/isk/persistence/mongo/MongoInProceedingsDao.class
ch/ethz/globis/isk/domain/mongo/MongoBook.class
ch/ethz/globis/isk/domain/mongo/MongoInProceedings.class
ch/ethz/globis/isk/domain/mongo/MongoConferenceEdition.class
ch/ethz/globis/isk/persistence/mongo/MongoProceedingsDao.class
ch/ethz/globis/isk/persistence/mongo/MongoPersonDao.class
ch/ethz/globis/isk/domain/mongo/MongoPhdThesis.class
ch/ethz/globis/isk/config/PersistenceConfig.class
ch/ethz/globis/isk/domain/mongo/MongoJournal.class
ch/ethz/globis/isk/persistence/mongo/MongoPublicationDao.class
ch/ethz/globis/isk/persistence/mongo/MongoSeriesDao.class
ch/ethz/globis/isk/domain/mongo/MongoInCollection.class
ch/ethz/globis/isk/persistence/mongo/MongoConferenceEditionDao.class
ch/ethz/globis/isk/domain/mongo/MongoSchool.class
ch/ethz/globis/isk/domain/mongo/MongoPerson.class
ch/ethz/globis/isk/persistence/mongo/MongoJournalDao.class
ch/ethz/globis/isk/domain/mongo/MongoConference.class
ch/ethz/globis/isk/persistence/mongo/MongoPhdThesisDao.class
ch/ethz/globis/isk/domain/mongo/MongoJournalEdition.class
ch/ethz/globis/isk/persistence/mongo/MongoPublisherDao.class
ch/ethz/globis/isk/domain/mongo/MongoArticle.class
ch/ethz/globis/isk/transaction/mongo/MongoTransactionManager.class
ch/ethz/globis/isk/persistence/mongo/KeyValuePair.class
ch/ethz/globis/isk/domain/mongo/MongoMasterThesis.class
ch/ethz/globis/isk/persistence/mongo/MongoJournalEditionDao.class
ch/ethz/globis/isk/persistence/mongo/MongoInCollectionDao.class
ch/ethz/globis/isk/persistence/mongo/MongoSchoolDao.class
ch/ethz/globis/isk/persistence/mongo/MongoBookDao.class
ch/ethz/globis/isk/domain/mongo/MongoPublisher.class
ch/ethz/globis/isk/domain/mongo/MongoSeries.class
ch/ethz/globis/isk/persistence/mongo/MongoMasterThesisDao.class
ch/ethz/globis/isk/persistence/mongo/MongoDao.class
ch/ethz/globis/isk/persistence/mongo/MongoConferenceDao.class
ch/ethz/globis/isk/domain/mongo/MongoProceedings.class
