/home/daniel/Dropbox/ETH/6.Semester/Information System/Project5/isk-task5-handout/db4o-impl/src/main/java/ch/ethz/globis/isk/domain/db4o/Db4oPerson.java
/home/daniel/Dropbox/ETH/6.Semester/Information System/Project5/isk-task5-handout/db4o-impl/src/main/java/ch/ethz/globis/isk/persistence/db4o/Db4oConferenceDao.java
/home/daniel/Dropbox/ETH/6.Semester/Information System/Project5/isk-task5-handout/db4o-impl/src/main/java/ch/ethz/globis/isk/domain/db4o/Db4oJournalEdition.java
/home/daniel/Dropbox/ETH/6.Semester/Information System/Project5/isk-task5-handout/db4o-impl/src/main/java/ch/ethz/globis/isk/persistence/db4o/Db4oPersonDao.java
/home/daniel/Dropbox/ETH/6.Semester/Information System/Project5/isk-task5-handout/db4o-impl/src/main/java/ch/ethz/globis/isk/domain/db4o/Db4oSeries.java
/home/daniel/Dropbox/ETH/6.Semester/Information System/Project5/isk-task5-handout/db4o-impl/src/main/java/ch/ethz/globis/isk/persistence/db4o/Db4oInCollectionDao.java
/home/daniel/Dropbox/ETH/6.Semester/Information System/Project5/isk-task5-handout/db4o-impl/src/main/java/ch/ethz/globis/isk/persistence/db4o/Db4oInProceedingsDao.java
/home/daniel/Dropbox/ETH/6.Semester/Information System/Project5/isk-task5-handout/db4o-impl/src/main/java/ch/ethz/globis/isk/domain/db4o/Db4oConference.java
/home/daniel/Dropbox/ETH/6.Semester/Information System/Project5/isk-task5-handout/db4o-impl/src/main/java/ch/ethz/globis/isk/persistence/db4o/Db4oPhdThesisDao.java
/home/daniel/Dropbox/ETH/6.Semester/Information System/Project5/isk-task5-handout/db4o-impl/src/main/java/ch/ethz/globis/isk/persistence/db4o/Db4oBookDao.java
/home/daniel/Dropbox/ETH/6.Semester/Information System/Project5/isk-task5-handout/db4o-impl/src/main/java/ch/ethz/globis/isk/persistence/db4o/Db4oJournalEditionDao.java
/home/daniel/Dropbox/ETH/6.Semester/Information System/Project5/isk-task5-handout/db4o-impl/src/main/java/ch/ethz/globis/isk/persistence/db4o/Db4oSeriesDao.java
/home/daniel/Dropbox/ETH/6.Semester/Information System/Project5/isk-task5-handout/db4o-impl/src/main/java/ch/ethz/globis/isk/persistence/db4o/Db4oSchoolDao.java
/home/daniel/Dropbox/ETH/6.Semester/Information System/Project5/isk-task5-handout/db4o-impl/src/main/java/ch/ethz/globis/isk/config/PersistenceConfig.java
/home/daniel/Dropbox/ETH/6.Semester/Information System/Project5/isk-task5-handout/db4o-impl/src/main/java/ch/ethz/globis/isk/persistence/db4o/Db4oProceedingsDao.java
/home/daniel/Dropbox/ETH/6.Semester/Information System/Project5/isk-task5-handout/db4o-impl/src/main/java/ch/ethz/globis/isk/domain/db4o/Db4oConferenceEdition.java
/home/daniel/Dropbox/ETH/6.Semester/Information System/Project5/isk-task5-handout/db4o-impl/src/main/java/ch/ethz/globis/isk/persistence/db4o/Db4oConferenceEditionDao.java
/home/daniel/Dropbox/ETH/6.Semester/Information System/Project5/isk-task5-handout/db4o-impl/src/main/java/ch/ethz/globis/isk/domain/db4o/Db4oPhdThesis.java
/home/daniel/Dropbox/ETH/6.Semester/Information System/Project5/isk-task5-handout/db4o-impl/src/main/java/ch/ethz/globis/isk/transaction/db4o/Db4oTransactionManager.java
/home/daniel/Dropbox/ETH/6.Semester/Information System/Project5/isk-task5-handout/db4o-impl/src/main/java/ch/ethz/globis/isk/persistence/db4o/Db4oPublisherDao.java
/home/daniel/Dropbox/ETH/6.Semester/Information System/Project5/isk-task5-handout/db4o-impl/src/main/java/ch/ethz/globis/isk/domain/db4o/Db4oInProceedings.java
/home/daniel/Dropbox/ETH/6.Semester/Information System/Project5/isk-task5-handout/db4o-impl/src/main/java/ch/ethz/globis/isk/persistence/db4o/Db4oDao.java
/home/daniel/Dropbox/ETH/6.Semester/Information System/Project5/isk-task5-handout/db4o-impl/src/main/java/ch/ethz/globis/isk/persistence/db4o/Db4oMasterThesisDao.java
/home/daniel/Dropbox/ETH/6.Semester/Information System/Project5/isk-task5-handout/db4o-impl/src/main/java/ch/ethz/globis/isk/domain/db4o/Db4oPublisher.java
/home/daniel/Dropbox/ETH/6.Semester/Information System/Project5/isk-task5-handout/db4o-impl/src/main/java/ch/ethz/globis/isk/domain/db4o/Db4oMasterThesis.java
/home/daniel/Dropbox/ETH/6.Semester/Information System/Project5/isk-task5-handout/db4o-impl/src/main/java/ch/ethz/globis/isk/domain/db4o/Db4oInCollection.java
/home/daniel/Dropbox/ETH/6.Semester/Information System/Project5/isk-task5-handout/db4o-impl/src/main/java/ch/ethz/globis/isk/persistence/db4o/Db4oPublicationDao.java
/home/daniel/Dropbox/ETH/6.Semester/Information System/Project5/isk-task5-handout/db4o-impl/src/main/java/ch/ethz/globis/isk/domain/db4o/Db4oArticle.java
/home/daniel/Dropbox/ETH/6.Semester/Information System/Project5/isk-task5-handout/db4o-impl/src/main/java/ch/ethz/globis/isk/domain/db4o/Db4oPublication.java
/home/daniel/Dropbox/ETH/6.Semester/Information System/Project5/isk-task5-handout/db4o-impl/src/main/java/ch/ethz/globis/isk/domain/db4o/Db4oBook.java
/home/daniel/Dropbox/ETH/6.Semester/Information System/Project5/isk-task5-handout/db4o-impl/src/main/java/ch/ethz/globis/isk/domain/db4o/Db4oJournal.java
/home/daniel/Dropbox/ETH/6.Semester/Information System/Project5/isk-task5-handout/db4o-impl/src/main/java/ch/ethz/globis/isk/persistence/db4o/Db4oJournalDao.java
/home/daniel/Dropbox/ETH/6.Semester/Information System/Project5/isk-task5-handout/db4o-impl/src/main/java/ch/ethz/globis/isk/domain/db4o/Db4oSchool.java
/home/daniel/Dropbox/ETH/6.Semester/Information System/Project5/isk-task5-handout/db4o-impl/src/main/java/ch/ethz/globis/isk/domain/db4o/Db4oProceedings.java
/home/daniel/Dropbox/ETH/6.Semester/Information System/Project5/isk-task5-handout/db4o-impl/src/main/java/ch/ethz/globis/isk/persistence/db4o/Db4oArticleDao.java
